{
  "page":1,
  "total_results":19995,
  "total_pages":1000,
  "results":[
    {
      "vote_count":1552,
      "id":337167,
      "video":false,
      "vote_average":6,
      "title":"Cincuenta sombras liberadas",
      "popularity":724.042162,
      "poster_path":"/eLa1TaO78vbqANvfcRHZBnI1F3Q.jpg",
      "original_language":"en",
      "original_title":"Fifty Shades Freed",
      "genre_ids":[
        18,
        10749
      ],
      "backdrop_path":"/9ywA15OAiwjSTvg3cBs9B7kOCBF.jpg",
      "adult":false,
      "overview":"Creyendo que han dejado atrás las sombras del pasado, los recién casados Christian y Anastasia disfrutan de su relación y de su vida llena de lujos. Pero justo cuando Ana empieza a relajarse, aparecen nuevas amenazas que ponen en riesgo su felicidad. Adaptación de la última novela de la saga \"50 sombras de Grey\".",
      "release_date":"2018-02-07"
    },
    {
      "vote_count":7048,
      "id":269149,
      "video":false,
      "vote_average":7.7,
      "title":"Zootrópolis",
      "popularity":558.35201,
      "poster_path":"/rOYDjzWtgMa89xsHMjOcMYrd8hy.jpg",
      "original_language":"en",
      "original_title":"Zootopia",
      "genre_ids":[
        16,
        12,
        10751,
        35
      ],
      "backdrop_path":"/mhdeE1yShHTaDbJVdWyTlzFvNkr.jpg",
      "adult":false,
      "overview":"La moderna metrópoli mamífera de Zootrópolis es una ciudad absolutamente única. Está compuesta de barrios con diferentes hábitats como la lujosa Sahara Square y la gélida Tundratown. Es un crisol donde los animales de cada entorno conviven, un lugar donde no importa lo que seas. De hecho puedes ser cualquier cosa, desde un elefante enorme hasta la musaraña más diminuta. Pero cuando llega la optimista agente Judy Hopps, descubre que ser la primera conejita de un cuerpo policial compuesto de animales duros y enormes no es nada fácil. Pero está decidida a demostrar su valía y se mete de cabeza en un caso, a pesar de que eso significa trabajar con Nick Wilde, un zorro parlanchín y estafador, para resolver el misterio.",
      "release_date":"2016-02-11"
    },
    {
      "vote_count":1348,
      "id":299536,
      "video":false,
      "vote_average":8.7,
      "title":"Vengadores: Infinity War",
      "popularity":405.430471,
      "poster_path":"/oYQoblBImwCjYe7aeBswh4K6xsP.jpg",
      "original_language":"en",
      "original_title":"Avengers: Infinity War",
      "genre_ids":[
        12,
        878,
        14,
        28
      ],
      "backdrop_path":"/bOGkgRGdhrBYJSLpXaxhXVstddV.jpg",
      "adult":false,
      "overview":"Vengadores: Infinity War seguirá la lucha de los superhéroes de Marvel contra el mayor villano al que se han enfrentado nunca: Thanos. Su único objetivo será detener a este poderoso antagonista e impedir que se haga con el control de la galaxia. De nuevo veremos al grupo formado por Iron Man, Capitán América, Viuda negra, Ant-Man, Ojo de Halcón, Thor y Hulk, entre otros. En su nueva e impactante aventura, las Gemas del Infinito estarán en juego, unos querrán protegerlas y otros controlarlas, ¿quién ganará?",
      "release_date":"2018-04-25"
    },
    {
      "vote_count":4076,
      "id":354912,
      "video":false,
      "vote_average":7.8,
      "title":"Coco",
      "popularity":397.597396,
      "poster_path":"/oburjHqzOrTtDLYbLunKLwUHhk1.jpg",
      "original_language":"en",
      "original_title":"Coco",
      "genre_ids":[
        12,
        35,
        10751,
        16
      ],
      "backdrop_path":"/askg3SMvhqEl4OL52YuvdtY40Yb.jpg",
      "adult":false,
      "overview":"Miguel es un joven con el sueño de convertirse en leyenda de la música a pesar de la prohibición de su familia. Su pasión le llevará a adentrarse en la \"Tierra de los Muertos\" para conocer su verdadero legado familiar.",
      "release_date":"2017-10-27"
    },
    {
      "vote_count":320,
      "id":427641,
      "video":false,
      "vote_average":5.9,
      "title":"Proyecto Rampage",
      "popularity":359.12876,
      "poster_path":"/31lmlHvAxyDPJQ8SwDLrL9Mtg8T.jpg",
      "original_language":"en",
      "original_title":"Rampage",
      "genre_ids":[
        28,
        12,
        878
      ],
      "backdrop_path":"/wrqUiMXttHE4UBFMhLHlN601MZh.jpg",
      "adult":false,
      "overview":"El primatólogo Davis Okoye (Johnson), un hombre que mantiene las distancias con otras personas, tiene un sólido vínculo con George, el extraordinariamente inteligente gorila de espalda plateada al que ha estado cuidando desde que nació. Pero cuando un experimento genético sale mal, este apacible simio se convierte en una enorme y embravecida criatura. Para empeorar más las cosas, pronto se descubre que existen otros animales con la misma alteración. Cuando estos depredadores alfa recién creados arrasan Norteamérica destruyendo todo lo que interpone en su camino, Okoye se une a un ingeniero genético sin prestigio para conseguir un antídoto y se abre paso en un cambiante campo de batalla, no solo para frenar una catástrofe mundial sino para salvar a la aterradora criatura que una vez fue su amigo. Adaptación al cine del videojuego \"Rampage\", en el que simios y monstruos de todo tipo atacan y destruyen ciudades.",
      "release_date":"2018-04-12"
    },
    {
      "vote_count":4378,
      "id":284054,
      "video":false,
      "vote_average":7.3,
      "title":"Black Panther",
      "popularity":309.426521,
      "poster_path":"/uxzzxijgPIY7slzFvMotPv8wjKA.jpg",
      "original_language":"en",
      "original_title":"Black Panther",
      "genre_ids":[
        28,
        12,
        14,
        878
      ],
      "backdrop_path":"/AlFqBwJnokrp9zWTXOUv7uhkaeq.jpg",
      "adult":false,
      "overview":"\"Black Panther\" cuenta la historia de T'Challa quien, después de los acontecimientos de \"Capitán América: Civil War\", vuelve a casa, a la nación de Wakanda, aislada y muy avanzada tecnológicamente, para ser proclamado Rey. Pero la reaparición de un viejo enemigo pone a prueba el temple de T'Challa como Rey y Black Panther ya que se ve arrastrado a un conflicto que pone en peligro todo el destino de Wakanda y del mundo.",
      "release_date":"2018-02-13"
    },
    {
      "vote_count":8062,
      "id":321612,
      "video":false,
      "vote_average":6.8,
      "title":"La bella y la bestia",
      "popularity":261.827876,
      "poster_path":"/dsYDX5PNohJ365ZSh0jpqlIn99A.jpg",
      "original_language":"en",
      "original_title":"Beauty and the Beast",
      "genre_ids":[
        10751,
        14,
        10749
      ],
      "backdrop_path":"/6aUWe0GSl69wMTSWWexsorMIvwU.jpg",
      "adult":false,
      "overview":"Una joven soñadora y romántica llamada Bella, vive en una pequeña aldea junto a su padre, un inventor de artilugios, al que algunos consideran un anciano demente.Un día su padre se marcha a una feria para exponer sus inventos, pero se pierde en el camino y acaba en un grande y viejo castillo.",
      "release_date":"2017-03-16"
    },
    {
      "vote_count":5177,
      "id":181808,
      "video":false,
      "vote_average":7.1,
      "title":"La guerra de las galaxias: Episodio VIII Los Ultimos Jedi",
      "popularity":246.778978,
      "poster_path":"/rjBwhsOzHKUw2NIOrE7aMqjfe6s.jpg",
      "original_language":"en",
      "original_title":"Star Wars: The Last Jedi",
      "genre_ids":[
        14,
        12,
        878
      ],
      "backdrop_path":"/bIUaCtWaRgd78SnoHJDI8TNf7Sd.jpg",
      "adult":false,
      "overview":"La fuerza siente un cambio y los Maestros Jedi saben que es el momento de regresar. La galaxia se encuentra perdida y separada, y deberán unir fuerzas si no quieren que sea el fin de la paz. Con el rumor de una guerra, los pocos aliados que quedan emprenderán la búsqueda para aumentar sus aliados, mientras se enfrentan a la desconfianza y el temor de aquellos que no olvidan ni perdonan. Mundos casi olvidados, personajes misteriosos y viejas caras conocidas, una nueva aventura está a punto de comenzar para mantener la frágil supervivencia de La República, mientras se preparan para lo que está por llegar.",
      "release_date":"2017-12-13"
    },
    {
      "vote_count":763,
      "id":447332,
      "video":false,
      "vote_average":7.4,
      "title":"Un lugar tranquilo",
      "popularity":229.65305,
      "poster_path":"/t7wxNq7LCr56af35Pkngduy3scv.jpg",
      "original_language":"en",
      "original_title":"A Quiet Place",
      "genre_ids":[
        18,
        27,
        53,
        878
      ],
      "backdrop_path":"/roYyPiQDQKmIKUEhO912693tSja.jpg",
      "adult":false,
      "overview":"Evelyn y Lee Abbott son una pareja con tres hijos que vive una granja aislada de toda civilización al norte de Nueva York. Esta familia ha sobrevivido durante meses en un mundo invadido y amenazado por mortales criaturas extraterrestres que se guían por el sonido para cazar. En este contexto en el que una palabra puede significar la muerte, la familia Abbott vive silenciosamente, andan descalzos y se comunican por medio del lenguaje de señas.",
      "release_date":"2018-04-05"
    },
    {
      "vote_count":7695,
      "id":198663,
      "video":false,
      "vote_average":7,
      "title":"El corredor del laberinto",
      "popularity":220.64467,
      "poster_path":"/7xQcmL6WWVJB8N0POzTqxXHf21Q.jpg",
      "original_language":"en",
      "original_title":"The Maze Runner",
      "genre_ids":[
        28,
        9648,
        878,
        53
      ],
      "backdrop_path":"/lkOZcsXcOLZYeJ2YxJd3vSldvU4.jpg",
      "adult":false,
      "overview":"Thomas abre los ojos y se da cuenta que está en un ascensor. Lo extraño es que no recuerda nada, ni dónde está, ni quién es. Lo único que aún permanece intacto en su memoria es su nombre, y ya es mucho. Antes de que le dé tiempo a cuestionarse algo sobre sí mismo las puertas se abrirán y aparecerá ante él un extraño mundo. Todo lo que ve son chicos de su edad que tienen su mismo estado de amnesia. Una aventura fantástica que pronto destapará la dura realidad bajo ese velo de incertidumbre: todos ellos están atrapados en un laberinto. Si quieren tener alguna posibilidad de salir de allí y recuperar su antigua vida y aquello que no son capaces de recordar deberán unir fuerzas para escapar. Un mundo post-apocalíptico que les acorralará e irá un paso por delante será el desafío que tengan que pasar estos jóvenes por la libertad.",
      "release_date":"2014-10-09"
    },
    {
      "vote_count":1613,
      "id":333339,
      "video":false,
      "vote_average":7.9,
      "title":"Ready Player One",
      "popularity":218.800344,
      "poster_path":"/pU1ULUq8D3iRxl1fdX2lZIzdHuI.jpg",
      "original_language":"en",
      "original_title":"Ready Player One",
      "genre_ids":[
        12,
        878,
        28
      ],
      "backdrop_path":"/q7fXcrDPJcf6t3rzutaNwTzuKP1.jpg",
      "adult":false,
      "overview":"Año 2044. Wade Watts es un adolescente al que le gusta evadirse del cada vez más sombrío mundo real a través de una popular utopía virtual a escala global llamada Oasis, hasta que su excéntrico y multimillonario creador muere. Antes de morir, ofrece su fortuna como premio a una elaborada búsqueda del tesoro a través de los rincones más inhóspitos de su creación. Será el punto de partida para que Wade se enfrente a jugadores, poderosos enemigos corporativos y otros competidores despiadados dispuestos a hacer lo que sea, tanto dentro de Oasis como del mundo real, para hacerse con el premio.",
      "release_date":"2018-03-28"
    },
    {
      "vote_count":12714,
      "id":118340,
      "video":false,
      "vote_average":7.9,
      "title":"Guardianes de la galaxia",
      "popularity":210.219829,
      "poster_path":"/9Ju7p4daJi5rcTUghYZxHlP15ia.jpg",
      "original_language":"en",
      "original_title":"Guardians of the Galaxy",
      "genre_ids":[
        28,
        878,
        12
      ],
      "backdrop_path":"/bHarw8xrmQeqf3t8HpuMY7zoK4x.jpg",
      "adult":false,
      "overview":"El temerario aventurero Peter Quill es objeto de un implacable cazarrecompensas después de robar una misteriosa esfera codiciada por Ronan, un poderoso villano cuya ambición amenaza todo el universo. Para poder escapar del incansable Ronan, Quill se ve obligado a pactar una complicada tregua con un cuarteto de disparatados inadaptados: Rocket, un mapache armado con un rifle, Groot, un humanoide con forma de árbol, la letal y enigmática Gamora y el vengativo Drax the Destroyer. Pero cuando Quill descubre el verdadero poder de la esfera, deberá hacer todo lo posible para derrotar a sus extravagantes rivales en un intento desesperado de salvar el destino de la galaxia.",
      "release_date":"2014-08-08"
    },
    {
      "vote_count":14414,
      "id":24428,
      "video":false,
      "vote_average":7.5,
      "title":"Los vengadores",
      "popularity":201.803617,
      "poster_path":"/rPyWt7IPREDWnE1U8V9iMFzeh0p.jpg",
      "original_language":"en",
      "original_title":"The Avengers",
      "genre_ids":[
        878,
        28,
        12
      ],
      "backdrop_path":"/hbn46fQaRmlpBuUrEiFqv0GDL6Y.jpg",
      "adult":false,
      "overview":"Cuando un enemigo inesperado surge como una gran amenaza para la seguridad mundial, Nick Fury, director de la Agencia SHIELD, decide reclutar a un equipo para salvar al mundo de un desastre casi seguro. Adaptación del cómic de Marvel \"Los Vengadores\", el legendario grupo de superhéroes formado por Ironman, Hulk, Thor y el Capitán América entre otros.",
      "release_date":"2012-04-25"
    },
    {
      "vote_count":5588,
      "id":119450,
      "video":false,
      "vote_average":7.2,
      "title":"El amanecer del planeta de los simios",
      "popularity":199.250905,
      "poster_path":"/jxKdIqcAVC461gijzEBJmJcavTI.jpg",
      "original_language":"en",
      "original_title":"Dawn of the Planet of the Apes",
      "genre_ids":[
        878,
        28,
        18,
        53
      ],
      "backdrop_path":"/t7VSsAbIQS6kpO4ikuCNSiugsSy.jpg",
      "adult":false,
      "overview":"Un grupo de simios con grandes cualidades para la supervivencia toman las calles. Liderados por Cesar, un simio dotado de una inteligencia y unos instintos superiores para cualquier primate. Ante la necesidad de libertad de esta raza animal deciden no doblegarse ante el condicional humano y demostrar su fuerza y su valor.  Tendrán que luchar contra un grupo de humanos que han sobrevivido a una fuerte epidemia desatada en la década anterior. Ambas partes han establecido una tregua que se verá interrumpida debido a la necesidad de eliminar una coexistencia entre especies.",
      "release_date":"2014-07-24"
    },
    {
      "vote_count":1275,
      "id":274855,
      "video":false,
      "vote_average":5.7,
      "title":"Geo-tormenta",
      "popularity":191.946571,
      "poster_path":"/bZj0w94MfrpyyGBrVBmaifsR2Dy.jpg",
      "original_language":"en",
      "original_title":"Geostorm",
      "genre_ids":[
        28,
        878,
        53
      ],
      "backdrop_path":"/79X8JkGxzc1tJMi0KxUSaPLooVg.jpg",
      "adult":false,
      "overview":"¿Qué pasaría si después de una década de devastadores fenómenos climaticos, finalmente se descubriera la forma de controlar a la madre naturaleza y la destrucción que causa? Cuando el catastrófico cambio climático amenaza la supervivencia de la vida en la Tierra, los gobiernos se unen para crear el Project Dutch Boy: una red global de satélites que rodean el planeta armados con tecnología de geoingeniería diseñada para evitar los desastres naturales. Después de haber protegido al planeta durante dos años, algo comienza a salir mal. Dos hermanos alejados (Gerard Butler y Jim Sturgess) tienen la tarea de resolver el desperfecto del programa antes de que una geo-tormenta se trague al mundo.",
      "release_date":"2017-10-13"
    },
    {
      "vote_count":5806,
      "id":284053,
      "video":false,
      "vote_average":7.4,
      "title":"Thor: Ragnarok",
      "popularity":190.196099,
      "poster_path":"/s7hV8HFh7w2EZ4GK5EiltRVvWJA.jpg",
      "original_language":"en",
      "original_title":"Thor: Ragnarok",
      "genre_ids":[
        28,
        12,
        14
      ],
      "backdrop_path":"/kaIfm5ryEOwYg8mLbq8HkPuM1Fo.jpg",
      "adult":false,
      "overview":"Thor está preso al otro lado del universo sin su poderoso martillo y se enfrenta a una carrera contra el tiempo. Su objetivo es volver a Asgard y parar el Ragnarok porque significaría la destrucción de su planeta natal y el fin de la civilización Asgardiana a manos de una todopoderosa y nueva amenaza, la implacable Hela. Pero, primero deberá sobrevivir a una competición letal de gladiadores que lo enfrentará a su aliado y compañero en los Vengadores, ¡el Increíble Hulk!",
      "release_date":"2017-10-25"
    },
    {
      "vote_count":3658,
      "id":399055,
      "video":false,
      "vote_average":7.3,
      "title":"La forma del agua",
      "popularity":185.270943,
      "poster_path":"/EauUoNQ9ZmJ5uIBTAsJ7QlIrFK.jpg",
      "original_language":"en",
      "original_title":"The Shape of Water",
      "genre_ids":[
        18,
        14,
        10749
      ],
      "backdrop_path":"/abirSHwWgKajV3hXhaIR5lcCIXe.jpg",
      "adult":false,
      "overview":"Elisa es una joven muda que trabaja como conserje en un laboratorio en 1963, en plena Guerra Fría, donde se enamorará de un hombre anfibio que se encuentra ahí recluido.",
      "release_date":"2017-12-01"
    },
    {
      "vote_count":7341,
      "id":245891,
      "video":false,
      "vote_average":7,
      "title":"John Wick (Otro día para matar)",
      "popularity":183.903125,
      "poster_path":"/sl3QSDb7rB6dS4wzJoTJbhCVvVF.jpg",
      "original_language":"en",
      "original_title":"John Wick",
      "genre_ids":[
        28,
        53
      ],
      "backdrop_path":"/umC04Cozevu8nn3JTDJ1pc7PVTn.jpg",
      "adult":false,
      "overview":"En Nueva York, John Wick, un asesino a sueldo retirado, vuelve otra vez a la acción para vengarse de los gángsters que le quitaron todo. John Wick",
      "release_date":"2014-10-22"
    },
    {
      "vote_count":877,
      "id":353616,
      "video":false,
      "vote_average":6.4,
      "title":"Dando la nota 3",
      "popularity":181.505671,
      "poster_path":"/6wjaXcQH1y9Yocfff5QjxEPnO0O.jpg",
      "original_language":"en",
      "original_title":"Pitch Perfect 3",
      "genre_ids":[
        35,
        10402
      ],
      "backdrop_path":"/1qIzlhLGPSm6TxlvXBWe0Q5er7O.jpg",
      "adult":false,
      "overview":"Tras ganar el campeonato del mundo, las Bellas se separan y descubren que es difícil encontrar trabajo en el mundo de la música. Pero cuando tienen la oportunidad de reunirse para un tour en el extranjero, el grupo volverá a hacer música y a tomar algunas decisiones dudosas.",
      "release_date":"2017-12-21"
    },
    {
      "vote_count":18,
      "id":483877,
      "video":false,
      "vote_average":3.8,
      "title":"15 ไอคิวกระฉูด",
      "popularity":167.530365,
      "poster_path":"/1RxnEJzXYv5GgPszbHNsWTXPC6M.jpg",
      "original_language":"th",
      "original_title":"15 ไอคิวกระฉูด",
      "genre_ids":[
        35
      ],
      "backdrop_path":"/fp3Iiap1hblJfqHrBDziqgl9zzB.jpg",
      "adult":false,
      "overview":"",
      "release_date":"2017-08-03"
    }
  ]
}